\relax 
\@writefile{toc}{\contentsline {section}{\numberline {1}Introduction}{1}{}\protected@file@percent }
\newlabel{eq:1}{{1}{1}}
\newlabel{eq:2}{{2}{1}}
\citation{ek-tem}
\@writefile{toc}{\contentsline {section}{\numberline {2}Preliminaries}{2}{}\protected@file@percent }
\newlabel{lem:cont-1}{{1}{2}}
\newlabel{lem-ek-tem}{{2}{2}}
\@writefile{toc}{\contentsline {section}{\numberline {3}Main Proposition}{2}{}\protected@file@percent }
\newlabel{pro:main}{{1}{2}}
\newlabel{eq:-1}{{3}{2}}
\newlabel{eq:3}{{4}{3}}
\newlabel{eq:mufi}{{5}{3}}
\bibcite{ek-tem}{1}
\gdef \@abspage@last{4}
