\relax 
\@writefile{toc}{\contentsline {section}{\numberline {1}Introduction}{1}{}\protected@file@percent }
\newlabel{thm:main}{{1}{1}}
\newlabel{eq:2}{{1}{1}}
\@writefile{toc}{\contentsline {section}{\numberline {2}Preliminaries}{2}{}\protected@file@percent }
\newlabel{thm:inverse-classical}{{2}{2}}
\newlabel{cor:unique}{{1}{2}}
\newlabel{lem-tn-0}{{1}{2}}
\newlabel{pro:extent}{{1}{3}}
\newlabel{eq:def-tn}{{2}{3}}
\newlabel{eq:an+1-choice}{{3}{3}}
\citation{ek-tem}
\citation{ek:article}
\newlabel{eq:tn-to-0}{{4}{4}}
\newlabel{lem-ek-tem}{{2}{4}}
\newlabel{thm:ekeland-surj}{{3}{4}}
\bibcite{ek-tem}{1}
\bibcite{ek:article}{2}
\@writefile{toc}{\contentsline {section}{\numberline {3}Proof of Theorem\nobreakspace  {}1\hbox {}}{5}{}\protected@file@percent }
\newlabel{eq:G-noempty}{{5}{5}}
\newlabel{lem:inj-0}{{3}{5}}
\gdef \@abspage@last{5}
