\relax 
\@writefile{toc}{\contentsline {section}{\numberline {1}Introduction}{1}{}\protected@file@percent }
\newlabel{thm:main}{{1}{1}}
\newlabel{eq:1}{{1}{1}}
\newlabel{eq:2}{{2}{1}}
\citation{ek-tem}
\@writefile{toc}{\contentsline {section}{\numberline {2}Preliminaries}{2}{}\protected@file@percent }
\newlabel{cor:unique}{{1}{2}}
\newlabel{lem-ek-tem}{{1}{2}}
\newlabel{prop:surj}{{1}{2}}
\newlabel{eq:meas-set-diff}{{3}{3}}
\newlabel{lem:topo}{{2}{3}}
\@writefile{toc}{\contentsline {section}{\numberline {3}Main Proposition}{3}{}\protected@file@percent }
\newlabel{pro:main}{{2}{3}}
\newlabel{eq:-1}{{4}{4}}
\newlabel{eq:3}{{5}{4}}
\bibcite{ek-tem}{1}
\newlabel{eq:mufi}{{6}{5}}
\gdef \@abspage@last{5}
